MPDW Tugs Prak 6
…
set.seed(1072)

Data

oil_price <- read_excel("E:/Kuliah/MPDW/Data/Crude Oil Price Data 1-127.xlsx")

oil_price <- oil_price %>%
  as_tsibble(index = Period)

Eksplorasi Data

oil_train <- oil_price[1:102,]
oil_train

## # A tsibble: 102 x 4 [1]
##    Period Price PercentChange Change
##     <dbl> <dbl>         <dbl>  <dbl>
##  1      1  29.3        NA      NA   
##  2      2  30.6         4.65    1.36
##  3      3  30.2        -1.24   -0.38
##  4      4  31.4         3.74    1.13
##  5      5  32           1.98    0.62
##  6      6  31.6        -1.28   -0.41
##  7      7  30.4        -3.89   -1.23
##  8      8  30.4         0.033   0.01
##  9      9  29.2        -3.75   -1.14
## 10     10  29.6         1.27    0.37
## #  92 more rows

oil_train.ts <- ts(oil_train)

oil_test <- oil_price[103:127,]
oil_test

## # A tsibble: 25 x 4 [1]
##    Period Price PercentChange Change
##     <dbl> <dbl>         <dbl>  <dbl>
##  1    103  22.2        -0.135  -0.03
##  2    104  23.4         5.13    1.14
##  3    105  21.5        -8.09   -1.89
##  4    106  19.1       -11.0    -2.36
##  5    107  18.9        -1.15   -0.22
##  6    108  18.7        -1.16   -0.22
##  7    109  19.4         4.07    0.76
##  8    110  20.8         7.25    1.41
##  9    111  22.1         6.04    1.26
## 10    112  21.6        -2.31   -0.51
## #  15 more rows
…
