MPDW Tugs Prak 5
…
set.seed(1072)

Data

oil_price <- read_excel("E:/Kuliah/MPDW/Data/Crude Oil Price Data 1-127.xlsx")

oil_price <- oil_price[1:102, ]

oil_price <- oil_price %>%
  as_tsibble(index = Period)

oil_price

## # A tsibble: 102 x 4 [1]
##    Period Price PercentChange Change
##     <dbl> <dbl>         <dbl>  <dbl>
##  1      1  29.3        NA      NA   
##  2      2  30.6         4.65    1.36
##  3      3  30.2        -1.24   -0.38
##  4      4  31.4         3.74    1.13
##  5      5  32           1.98    0.62
##  6      6  31.6        -1.28   -0.41
##  7      7  30.4        -3.89   -1.23
##  8      8  30.4         0.033   0.01
##  9      9  29.2        -3.75   -1.14
## 10     10  29.6         1.27    0.37
## #  92 more rows
…
